{
    "KPlugin": {
        "Description": "Notes Summary Setup",
        "Description[ar]": "إعداد ملخّص الملاحظات",
        "Description[bg]": "Настройки на описанието на бележки",
        "Description[ca@valencia]": "Configureu el resum de les notes",
        "Description[ca]": "Configuració del resum de les notes",
        "Description[cs]": "Nastavení souhrnu poznámek",
        "Description[de]": "Einstellung der Notizen-Übersicht",
        "Description[el]": "Ρύθμιση σύνοψης σημειωμάτων",
        "Description[en_GB]": "Notes Summary Setup",
        "Description[eo]": "Agordo por Notresumoj",
        "Description[es]": "Configuración del resumen de notas",
        "Description[eu]": "Oharren laburpena ezartzea",
        "Description[fi]": "Muistiinpanoyhteenvedon asetukset",
        "Description[fr]": "Configuration du résumé des notes",
        "Description[gl]": "Configuración do resumo das notas",
        "Description[he]": "הגדרות תקציר פתקיות",
        "Description[ia]": "Configuration de summario de Notas",
        "Description[it]": "Impostazioni sommario note",
        "Description[ka]": "სანიშნეების შეჯამების მორგება",
        "Description[ko]": "노트 요약 설정",
        "Description[nl]": "Instellingen voor overzicht van notities",
        "Description[nn]": "Oppsett av notatsamandrag",
        "Description[pl]": "Ustawienia podsumowania notatek",
        "Description[pt]": "Configuração do Resumo das Notas",
        "Description[pt_BR]": "Configuração do resumo de notas",
        "Description[ru]": "Настройка дайджеста заметок",
        "Description[sl]": "Nastavi povzetke sporočilc",
        "Description[sv]": "Inställning av anteckningsöversikt",
        "Description[tr]": "Not Özet Yapılandırması",
        "Description[uk]": "Налаштування резюме щодо нотаток",
        "Description[x-test]": "xxNotes Summary Setupxx",
        "Description[zh_TW]": "便條摘要設定",
        "Icon": "knotes",
        "Name": "New Notes",
        "Name[ar]": "ملاحظات جديدة",
        "Name[ast]": "Notes nueves",
        "Name[bg]": "Нова бележка",
        "Name[bs]": "Nove bilješke",
        "Name[ca@valencia]": "Notes noves",
        "Name[ca]": "Notes noves",
        "Name[cs]": "Nové poznámky",
        "Name[da]": "Nye noter",
        "Name[de]": "Neue Notizen",
        "Name[el]": "Νέα σημειώματα",
        "Name[en_GB]": "New Notes",
        "Name[eo]": "Novaj Notoj",
        "Name[es]": "Nuevas notas",
        "Name[et]": "Uued sedelid",
        "Name[eu]": "Ohar berriak",
        "Name[fi]": "Uudet muistiinpanot",
        "Name[fr]": "Nouvelles notes",
        "Name[gl]": "Novas notas",
        "Name[he]": "פתקיות חדשות",
        "Name[hu]": "Új jegyzetek",
        "Name[ia]": "Nove notas",
        "Name[it]": "Nuove note",
        "Name[ka]": "ახალი სანიშნეები",
        "Name[ko]": "새 노트",
        "Name[nb]": "Nye notater",
        "Name[nds]": "Nieg Notizen",
        "Name[nl]": "Nieuwe notities",
        "Name[nn]": "Nye notat",
        "Name[pl]": "Nowe notatki",
        "Name[pt]": "Novas Notas",
        "Name[pt_BR]": "Novas notas",
        "Name[ru]": "Новые заметки",
        "Name[sk]": "Nové poznámky",
        "Name[sl]": "Nova sporočilca",
        "Name[sr@ijekavian]": "Нове белешке",
        "Name[sr@ijekavianlatin]": "Nove beleške",
        "Name[sr@latin]": "Nove beleške",
        "Name[sr]": "Нове белешке",
        "Name[sv]": "Nya anteckningar",
        "Name[tr]": "Yeni Notlar",
        "Name[uk]": "Нові нотатки",
        "Name[x-test]": "xxNew Notesxx",
        "Name[zh_CN]": "新建记事贴",
        "Name[zh_TW]": "新增便條"
    },
    "X-KDE-Weight": 200
}
