{
    "KPlugin": {
        "Description": "Setup display for notes",
        "Description[ar]": "اضبط عرض الملاحظات",
        "Description[bg]": "Настройка на показване на бележки",
        "Description[ca@valencia]": "Configura la visualització per a les notes",
        "Description[ca]": "Configura la visualització per a les notes",
        "Description[cs]": "Nastavení zobrazení poznámek",
        "Description[de]": "Anzeige von Notizen einrichten",
        "Description[el]": "Ρύθμιση εμφάνισης για τα σημειώματα",
        "Description[en_GB]": "Setup display for notes",
        "Description[eo]": "Agordi bildigon por notoj",
        "Description[es]": "Configurar pantalla para las notas",
        "Description[eu]": "Ezarri oharren bistaratzea",
        "Description[fi]": "Muistiinpanojen näkymäasetukset",
        "Description[fr]": "Configuration de l'affichage pour les notes",
        "Description[gl]": "Configuración da visualización das notas",
        "Description[he]": "הגדרת תצוגה לפתקיות",
        "Description[ia]": "Configuration de vista pro notas",
        "Description[it]": "Imposta la visualizzazione per le note",
        "Description[ka]": "სანიშნეების ჩვენების მორგება",
        "Description[ko]": "노트 표시 설정",
        "Description[nl]": "Stel het tonen van notities in",
        "Description[nn]": "Set opp vising av notat",
        "Description[pl]": "Ustawienia wyświetlania notatek",
        "Description[pt]": "Configurar a visualização das notas",
        "Description[pt_BR]": "Configurar exibição para notas",
        "Description[ru]": "Настройка вывода заметок на экран",
        "Description[sl]": "Nastavi prikaze sporočilc",
        "Description[sv]": "Ställ in skärm för anteckningslappar",
        "Description[tr]": "Notların görünümünü ayarla",
        "Description[uk]": "Налаштуйте показ нотаток",
        "Description[x-test]": "xxSetup display for notesxx",
        "Description[zh_TW]": "設定便條的顯示",
        "Icon": "knotes",
        "Name": "Display",
        "Name[ar]": "العرض",
        "Name[bg]": "Показване",
        "Name[bs]": "Prikaz",
        "Name[ca@valencia]": "Visualització",
        "Name[ca]": "Visualització",
        "Name[cs]": "Zobrazení",
        "Name[da]": "Vis",
        "Name[de]": "Anzeige",
        "Name[el]": "Εμφάνιση",
        "Name[en_GB]": "Display",
        "Name[eo]": "Bildigo",
        "Name[es]": "Pantalla",
        "Name[et]": "Vaade",
        "Name[eu]": "Azaltzea",
        "Name[fi]": "Näkymä",
        "Name[fr]": "Affichage",
        "Name[ga]": "Taispeáint",
        "Name[gl]": "Visualización",
        "Name[he]": "תצוגה",
        "Name[hu]": "Megjelenítés",
        "Name[ia]": "Monstrator",
        "Name[it]": "Visualizzazione",
        "Name[ja]": "表示",
        "Name[ka]": "ეკრანი",
        "Name[kk]": "Көрсету",
        "Name[km]": "បង្ហាញ",
        "Name[ko]": "표시",
        "Name[lt]": "Rodymas",
        "Name[lv]": "Attēlošana",
        "Name[mai]": "देखाबू",
        "Name[mr]": "दर्शवा",
        "Name[nb]": "Visning",
        "Name[nds]": "Dorstellen",
        "Name[nl]": "Tonen",
        "Name[nn]": "Vising",
        "Name[pa]": "ਦਿੱਖ",
        "Name[pl]": "Wyświetlanie",
        "Name[pt]": "Visualização",
        "Name[pt_BR]": "Exibir",
        "Name[ro]": "Afișare",
        "Name[ru]": "Вывод на экран",
        "Name[sk]": "Obrazovka",
        "Name[sl]": "Prikaz",
        "Name[sr@ijekavian]": "Приказ",
        "Name[sr@ijekavianlatin]": "Prikaz",
        "Name[sr@latin]": "Prikaz",
        "Name[sr]": "Приказ",
        "Name[sv]": "Skärm",
        "Name[tr]": "Görünüm",
        "Name[ug]": "كۆرسەتكۈچ",
        "Name[uk]": "Показ",
        "Name[wa]": "Håynaedje",
        "Name[x-test]": "xxDisplayxx",
        "Name[zh_CN]": "显示",
        "Name[zh_TW]": "顯示",
        "ServiceTypes": [
            "KCModule"
        ]
    },
    "X-KDE-Weight": 50
}
